Import play-by-play data Grab all play-by-play data, not just punts — import_seasons • puntr
…
    Arguments

      years
      A year or range of years between 1999 and 2019, inclusive

    Value

    A tibble pbp containing play-by-play data for the specified years

    Examples

import_seasons(1999:2019)

#> # A tibble: 996,684 x 340
#>    play_id game_id old_game_id home_team away_team season_type  week posteam
#>      <dbl> <chr>   <chr>       <chr>     <chr>     <chr>       <int> <chr>  
#>  1      35 1999_0… 1999091200  PHI       ARI       REG             1 PHI    
#>  2      60 1999_0… 1999091200  PHI       ARI       REG             1 PHI    
#>  3      82 1999_0… 1999091200  PHI       ARI       REG             1 PHI    
#>  4     103 1999_0… 1999091200  PHI       ARI       REG             1 PHI    
#>  5     126 1999_0… 1999091200  PHI       ARI       REG             1 PHI    
#>  6     150 1999_0… 1999091200  PHI       ARI       REG             1 PHI    
#>  7     176 1999_0… 1999091200  PHI       ARI       REG             1 ARI    
#>  8     197 1999_0… 1999091200  PHI       ARI       REG             1 ARI    
#>  9     218 1999_0… 1999091200  PHI       ARI       REG             1 ARI    
#> 10     240 1999_0… 1999091200  PHI       ARI       REG             1 ARI    
#> # … with 996,674 more rows, and 332 more variables: posteam_type <chr>,
#> #   defteam <chr>, side_of_field <chr>, yardline_100 <dbl>, game_date <chr>,
#> #   quarter_seconds_remaining <dbl>, half_seconds_remaining <dbl>,
#> #   game_seconds_remaining <dbl>, game_half <chr>, quarter_end <dbl>,
#> #   drive <dbl>, sp <dbl>, qtr <dbl>, down <dbl>, goal_to_go <dbl>, time <chr>,
#> #   yrdln <chr>, ydstogo <dbl>, ydsnet <dbl>, desc <chr>, play_type <chr>,
#> #   yards_gained <dbl>, shotgun <dbl>, no_huddle <dbl>, qb_dropback <dbl>,
#> #   qb_kneel <dbl>, qb_spike <dbl>, qb_scramble <dbl>, pass_length <chr>,
#> #   pass_location <chr>, air_yards <dbl>, yards_after_catch <dbl>,
…
